{
	"Aether": {
		"Aether": 1,
		"Air": 2,
		"Earth": 1,
		"Electric": 1,
		"Fire": 1,
		"Ice": 1,
		"Metal": 1,
		"Nether": 1,
		"Neutral": 2,
		"Plant": 1,
		"Poison": 1,
		"Spirit": 1,
		"Water": 1
	},
	"Air": {
		"Aether": 0.5,
		"Air": 1,
		"Earth": 1,
		"Electric": 0.5,
		"Fire": 2,
		"Ice": 1,
		"Metal": 0.5,
		"Nether": 2,
		"Neutral": 1,
		"Plant": 1,
		"Poison": 2,
		"Spirit": 0.5,
		"Water": 1
	},
	"Earth": {
		"Aether": 2,
		"Air": 1,
		"Earth": 1,
		"Electric": 2,
		"Fire": 2,
		"Ice": 0.5,
		"Metal": 1,
		"Nether": 0.5,
		"Neutral": 1,
		"Plant": 1,
		"Poison": 1,
		"Spirit": 1,
		"Water": 1
	},
	"Electric": {
		"Aether": 1,
		"Air": 1,
		"Earth": 0.5,
		"Electric": 0.5,
		"Fire": 1,
		"Ice": 1,
		"Metal": 2,
		"Nether": 1,
		"Neutral": 1,
		"Plant": 0.5,
		"Poison": 1,
		"Spirit": 2,
		"Water": 2
	},
	"Fire": {
		"Aether": 1,
		"Air": 0.5,
		"Earth": 0.5,
		"Electric": 0.5,
		"Fire": 1,
		"Ice": 2,
		"Metal": 2,
		"Nether": 1,
		"Neutral": 1,
		"Plant": 2,
		"Poison": 1,
		"Spirit": 1,
		"Water": 0.5
	},
	"Ice": {
		"Aether": 1,
		"Air": 2,
		"Earth": 2,
		"Electric": 1,
		"Fire": 0.5,
		"Ice": 0.5,
		"Metal": 0.5,
		"Nether": 1,
		"Neutral": 1,
		"Plant": 2,
		"Poison": 2,
		"Spirit": 0.5,
		"Water": 1
	},
	"Metal": {
		"Aether": 1,
		"Air": 1,
		"Earth": 1,
		"Electric": 1,
		"Fire": 0.5,
		"Ice": 2,
		"Metal": 1,
		"Nether": 2,
		"Neutral": 1,
		"Plant": 2,
		"Poison": 1,
		"Spirit": 1,
		"Water": 0.5
	},
	"Nether": {
		"Aether": 2,
		"Air": 0.5,
		"Earth": 2,
		"Electric": 1,
		"Fire": 1,
		"Ice": 1,
		"Metal": 0.5,
		"Nether": 1,
		"Neutral": 1,
		"Plant": 1,
		"Poison": 1,
		"Spirit": 1,
		"Water": 1
	},
	"Neutral": {
		"Aether": 1,
		"Air": 1,
		"Earth": 1,
		"Electric": 1,
		"Fire": 1,
		"Ice": 1,
		"Metal": 1,
		"Nether": 1,
		"Neutral": 1,
		"Plant": 1,
		"Poison": 1,
		"Spirit": 1,
		"Water": 1
	},
	"Plant": {
		"Aether": 1,
		"Air": 1,
		"Earth": 2,
		"Electric": 2,
		"Fire": 0.5,
		"Ice": 0.5,
		"Metal": 1,
		"Nether": 1,
		"Neutral": 1,
		"Plant": 0.5,
		"Poison": 1,
		"Spirit": 1,
		"Water": 2
	},
	"Poison": {
		"Aether": 1,
		"Air": 1,
		"Earth": 1,
		"Electric": 1,
		"Fire": 1,
		"Ice": 1,
		"Metal": 0.5,
		"Nether": 1,
		"Neutral": 1,
		"Plant": 2,
		"Poison": 0.5,
		"Spirit": 0.5,
		"Water": 2
	},
	"Spirit": {
		"Aether": 1,
		"Air": 2,
		"Earth": 1,
		"Electric": 0.5,
		"Fire": 1,
		"Ice": 1,
		"Metal": 1,
		"Nether": 0.5,
		"Neutral": 1,
		"Plant": 0.5,
		"Poison": 2,
		"Spirit": 1,
		"Water": 1
	},
	"Water": {
		"Aether": 0.5,
		"Air": 1,
		"Earth": 2,
		"Electric": 1,
		"Fire": 2,
		"Ice": 1,
		"Metal": 2,
		"Nether": 1,
		"Neutral": 1,
		"Plant": 0.5,
		"Poison": 0.5,
		"Spirit": 1,
		"Water": 1
	}
}