{
	"name": "Bite",
	"description": "",
	"type": "Neutral",
	"target": "",
	"modifier": [
		{
			"type": "damage",
			"power": 30,
			"attackStat": "Physical Attack",
			"defenseStat": "Physical Defense"
		}
	],
	"staminaUsage": 10,
	"cooldown": 1
}