{
	"name": "Flamurus",
	"attributeBase": {
		"health": 40,
		"physAttack": 60,
		"physDefense": 44,
		"specAttack": 30,
		"specDefense": 35,
		"initiative": 49,
		"stamina": 40
	},
	"types": [
		"Fire"
	],
	"baseExp": 0,
	"expCurve": null,
	"moveSet": [
		{
			"id": 1593428081,
			"name": "Bite",
			"trigger": "LevelUp",
			"condition": {
				"type": "Level",
				"level": 5
			}
		}
	],
	"evolution": [
		{
			"id": 1593027726,
			"name": "Flamda",
			"trigger": "LevelUp",
			"condition": {
				"type": "Level",
				"level": 16
			}
		}
	],
	"trainingModifier": {
		"health": 0,
		"physAttack": 1,
		"physDefense": 0,
		"specAttack": 0,
		"specDefense": 0,
		"initiative": 0,
		"stamina": 0
	}
}