{
	"name": "Phuhu",
	"attributeBase": {
		"health": 0,
		"physAttack": 0,
		"physDefense": 0,
		"specAttack": 0,
		"specDefense": 0,
		"initiative": 0,
		"stamina": 0
	},
	"types": [
		"Fire",
		"Air"
	],
	"baseExp": 0,
	"expCurve": null,
	"moveSet": [],
	"evolution": [],
	"trainingModifier": {
		"health": 0,
		"physAttack": 0,
		"physDefense": 0,
		"specAttack": 0,
		"specDefense": 0,
		"initiative": 0,
		"stamina": 0
	}
}